CPU.vcd
$date
	Sun Dec  6 02:25:57 2020
$end
$version
	Icarus Verilog
$end
$timescale
	1s
$end
$scope module TestBench $end
$var reg 1 ! Clk $end
$var reg 1 " Reset $end
$var reg 1 # Start $end
$var integer 32 $ counter [31:0] $end
$var integer 32 % flush [31:0] $end
$var integer 32 & i [31:0] $end
$var integer 32 ' outfile [31:0] $end
$var integer 32 ( stall [31:0] $end
$scope module CPU $end
$var wire 1 ! clk_i $end
$var wire 1 " rst_i $end
$var wire 1 # start_i $end
$var wire 32 ) wb_data [31:0] $end
$var wire 32 * rs2_data [31:0] $end
$var wire 2 + rs2_ctrl [1:0] $end
$var wire 5 , rs2_addr [4:0] $end
$var wire 32 - rs1_data [31:0] $end
$var wire 2 . rs1_ctrl [1:0] $end
$var wire 5 / rs1_addr [4:0] $end
$var wire 5 0 rd_addr [4:0] $end
$var wire 32 1 pc_o [31:0] $end
$var wire 32 2 pc_i [31:0] $end
$var wire 32 3 pc_add4 [31:0] $end
$var wire 7 4 opcode [6:0] $end
$var wire 32 5 mux_o [31:0] $end
$var wire 32 6 instr [31:0] $end
$var wire 32 7 imm_o [31:0] $end
$var wire 12 8 imm_i [11:0] $end
$var wire 7 9 func7 [6:0] $end
$var wire 3 : func3 [2:0] $end
$var wire 1 ; Stall $end
$var wire 1 < RegWrite $end
$var wire 1 = PcWrite $end
$var wire 32 > PC_Branch [31:0] $end
$var wire 1 ? NoOp $end
$var wire 1 @ MemtoReg $end
$var wire 1 A MemWrite $end
$var wire 1 B MemRead $end
$var wire 32 C MemData_o [31:0] $end
$var wire 1 D Flush $end
$var wire 1 E Branch $end
$var wire 1 F AluSrc $end
$var wire 2 G AluOp [1:0] $end
$var wire 3 H AluControl_o [2:0] $end
$var wire 32 I ALU_o [31:0] $end
$var wire 32 J ALU_RS2 [31:0] $end
$var wire 32 K ALU_RS1 [31:0] $end
$var reg 32 L EX_MEM_ALUout [31:0] $end
$var reg 1 M EX_MEM_MemRead $end
$var reg 1 N EX_MEM_MemWrite $end
$var reg 1 O EX_MEM_MemtoReg $end
$var reg 5 P EX_MEM_RD [4:0] $end
$var reg 1 Q EX_MEM_RegWrite $end
$var reg 32 R EX_MEM_WriteData [31:0] $end
$var reg 2 S ID_EX_AluOp [1:0] $end
$var reg 1 T ID_EX_AluSrc $end
$var reg 32 U ID_EX_IMM [31:0] $end
$var reg 1 V ID_EX_MemRead $end
$var reg 1 W ID_EX_MemWrite $end
$var reg 1 X ID_EX_MemtoReg $end
$var reg 5 Y ID_EX_RD [4:0] $end
$var reg 5 Z ID_EX_RS1 [4:0] $end
$var reg 32 [ ID_EX_RS1data [31:0] $end
$var reg 5 \ ID_EX_RS2 [4:0] $end
$var reg 32 ] ID_EX_RS2data [31:0] $end
$var reg 1 ^ ID_EX_RegWrite $end
$var reg 3 _ ID_EX_func3 [2:0] $end
$var reg 7 ` ID_EX_func7 [6:0] $end
$var reg 32 a IF_ID_IR [31:0] $end
$var reg 32 b IF_ID_PC [31:0] $end
$var reg 32 c MEM_WB_ALUout [31:0] $end
$var reg 32 d MEM_WB_MEMout [31:0] $end
$var reg 1 e MEM_WB_MemtoReg $end
$var reg 5 f MEM_WB_RD [4:0] $end
$var reg 1 g MEM_WB_RegWrite $end
$scope module ALU $end
$var wire 32 h rs1_data [31:0] $end
$var wire 32 i mux_o [31:0] $end
$var wire 3 j AluControl [2:0] $end
$var reg 32 k ALU_o [31:0] $end
$upscope $end
$scope module ALU_Control $end
$var wire 2 l AluOp [1:0] $end
$var wire 3 m func3 [2:0] $end
$var wire 7 n func7 [6:0] $end
$var reg 3 o AluControl_o [2:0] $end
$upscope $end
$scope module ALU_Src_Mux $end
$var wire 1 T ctrl_signal $end
$var wire 32 p input1 [31:0] $end
$var wire 32 q out [31:0] $end
$var wire 32 r input0 [31:0] $end
$upscope $end
$scope module Add4 $end
$var wire 32 s pc_o [31:0] $end
$var wire 32 t pc_i [31:0] $end
$upscope $end
$scope module Adder $end
$var wire 32 u IF_ID_PC [31:0] $end
$var wire 32 v PC_Branch [31:0] $end
$var wire 32 w IF_ID_Imm [31:0] $end
$upscope $end
$scope module Control $end
$var wire 7 x opcode [6:0] $end
$var wire 1 < RegWrite $end
$var wire 1 ? NoOp $end
$var wire 1 @ MemtoReg $end
$var wire 1 A MemWrite $end
$var wire 1 B MemRead $end
$var wire 1 E Branch $end
$var wire 1 F AluSrc $end
$var wire 2 y AluOp [1:0] $end
$upscope $end
$scope module Data_Memory $end
$var wire 1 M MemRead_i $end
$var wire 1 N MemWrite_i $end
$var wire 32 z addr_i [31:0] $end
$var wire 1 ! clk_i $end
$var wire 32 { data_i [31:0] $end
$var wire 32 | data_o [31:0] $end
$upscope $end
$scope module Forwarding_Unit $end
$var wire 5 } EX_MEM_RD [4:0] $end
$var wire 1 Q EX_MEM_RegWrite $end
$var wire 5 ~ ID_EX_RS1 [4:0] $end
$var wire 5 !" ID_EX_RS2 [4:0] $end
$var wire 5 "" MEM_WB_RD [4:0] $end
$var wire 1 g MEM_WB_RegWrite $end
$var wire 2 #" Forward_Control2 [1:0] $end
$var wire 2 $" Forward_Control1 [1:0] $end
$upscope $end
$scope module Hazard_Detection $end
$var wire 1 V ID_EX_MemRead $end
$var wire 5 %" ID_EX_RD [4:0] $end
$var wire 5 &" rs1_addr [4:0] $end
$var wire 5 '" rs2_addr [4:0] $end
$var wire 1 ; Stall_o $end
$var wire 1 = PcWrite_o $end
$var wire 1 ? NoOp_o $end
$upscope $end
$scope module Instruction_Memory $end
$var wire 32 (" instr_o [31:0] $end
$var wire 32 )" addr_i [31:0] $end
$upscope $end
$scope module PC $end
$var wire 1 = PCWrite_i $end
$var wire 1 ! clk_i $end
$var wire 1 " rst_i $end
$var wire 1 # start_i $end
$var wire 32 *" pc_i [31:0] $end
$var reg 32 +" pc_o [31:0] $end
$upscope $end
$scope module PC_Mux $end
$var wire 1 D ctrl_signal $end
$var wire 32 ," input0 [31:0] $end
$var wire 32 -" input1 [31:0] $end
$var wire 32 ." out [31:0] $end
$upscope $end
$scope module RS1_Forwarding $end
$var wire 32 /" EX_MEM_ALUout [31:0] $end
$var wire 32 0" ID_EX_RS [31:0] $end
$var wire 2 1" ctrl [1:0] $end
$var wire 32 2" forword_out [31:0] $end
$var wire 32 3" WB_WBdata [31:0] $end
$upscope $end
$scope module RS2_Forwarding $end
$var wire 32 4" EX_MEM_ALUout [31:0] $end
$var wire 32 5" ID_EX_RS [31:0] $end
$var wire 2 6" ctrl [1:0] $end
$var wire 32 7" forword_out [31:0] $end
$var wire 32 8" WB_WBdata [31:0] $end
$upscope $end
$scope module Registers $end
$var wire 5 9" RDaddr_i [4:0] $end
$var wire 5 :" RS1addr_i [4:0] $end
$var wire 5 ;" RS2addr_i [4:0] $end
$var wire 1 g RegWrite_i $end
$var wire 1 ! clk_i $end
$var wire 32 <" RS2data_o [31:0] $end
$var wire 32 =" RS1data_o [31:0] $end
$var wire 32 >" RDdata_i [31:0] $end
$upscope $end
$scope module Sign_Extend $end
$var wire 12 ?" imm_i [11:0] $end
$var wire 32 @" imm_o [31:0] $end
$upscope $end
$scope module WB_Mux $end
$var wire 1 e ctrl_signal $end
$var wire 32 A" input0 [31:0] $end
$var wire 32 B" input1 [31:0] $end
$var wire 32 C" out [31:0] $end
$upscope $end
$upscope $end
$upscope $end
$enddefinitions $end
#0
$dumpvars
b0 C"
b0 B"
b0 A"
b0 @"
b0 ?"
b0 >"
b0 ="
b0 <"
b0 ;"
b0 :"
b0 9"
b0 8"
b0 7"
b0 6"
b0 5"
b0 4"
b0 3"
b0 2"
b0 1"
b0 0"
b0 /"
b100 ."
b0 -"
b100 ,"
b0 +"
b100 *"
b0 )"
b11000000000010100010011 ("
b0 '"
b0 &"
b0 %"
b0 $"
b0 #"
b0 ""
b0 !"
b0 ~
b0 }
b0 |
b0 {
b0 z
b0 y
b100 x
b0 w
b0 v
b0 u
b0 t
b100 s
b0 r
b0 q
b0 p
b0 o
b0 n
b0 m
b0 l
b0 k
b0 j
b0 i
b0 h
0g
b0 f
0e
b0 d
b0 c
b0 b
b100 a
b0 `
b0 _
0^
b0 ]
b0 \
b0 [
b0 Z
b0 Y
0X
0W
0V
b0 U
0T
b0 S
b0 R
0Q
b0 P
0O
0N
0M
b0 L
b0 K
b0 J
b0 I
b0 H
b0 G
1F
0E
0D
b0 C
0B
0A
0@
0?
b0 >
1=
0<
0;
b0 :
b0 9
b0 8
b0 7
b11000000000010100010011 6
b0 5
b100 4
b100 3
b100 2
b0 1
b0 0
b0 /
b0 .
b0 -
b0 ,
b0 +
b0 *
b0 )
b0 (
b11 '
b100000 &
b0 %
b0 $
0#
1"
1!
$end
#12
1#
0"
#25
0!
#50
b1100 >
b1100 v
b1100 -"
1<
b110 7
b110 w
b110 @"
b110 8
b110 ?"
b1010 0
b0 ,
b0 '"
b0 ;"
b10011 4
b10011 x
b100000000010110010011 6
b100000000010110010011 ("
b1000 2
b1000 *"
b1000 ."
1T
b11000000000010100010011 a
b1000 3
b1000 s
b1000 ,"
b100 1
b100 t
b100 )"
b100 +"
b1 $
1!
#75
0!
#100
b1 7
b1 w
b1 @"
b1 8
b1 ?"
b1011 0
b110 I
b110 k
b110 5
b110 i
b110 q
b100000000010010010011 6
b100000000010010010011 ("
b1100 2
b1100 *"
b1100 ."
b110 >
b110 v
b110 -"
b100 b
b100 u
b100000000010110010011 a
1^
b110 U
b110 p
b1010 Y
b1010 %"
b1100 3
b1100 s
b1100 ,"
b1000 1
b1000 t
b1000 )"
b1000 +"
b10 $
1!
#125
0!
#150
b1 I
b1 k
b1001 0
b1 5
b1 i
b1 q
b10101101001000010010110011 6
b10101101001000010010110011 ("
b10000 2
b10000 *"
b10000 ."
1Q
b1010 P
b1010 }
b110 L
b110 z
b110 /"
b110 4"
b1 U
b1 p
b1011 Y
b1011 %"
b1010 >
b1010 v
b1010 -"
b1000 b
b1000 u
b100000000010010010011 a
b10000 3
b10000 s
b10000 ,"
b1100 1
b1100 t
b1100 )"
b1100 +"
b11 $
1!
#175
0!
#200
1<
0F
b101011 7
b101011 w
b101011 @"
b101011 8
b101011 ?"
b10 G
b10 y
b1011 ,
b1011 '"
b1011 ;"
b110011 4
b110011 x
b1001 /
b1001 &"
b1001 :"
b1 9
b110 )
b110 3"
b110 8"
b110 >"
b110 C"
b101011000010110010011 6
b101011000010110010011 ("
b10100 2
b10100 *"
b10100 ."
b1100010 >
b1100010 v
b1100010 -"
b1100 b
b1100 u
b10101101001000010010110011 a
b1001 Y
b1001 %"
b1011 P
b1011 }
b1 L
b1 z
b1 /"
b1 4"
1g
b1010 f
b1010 ""
b1010 9"
b110 c
b110 A"
b10100 3
b10100 s
b10100 ,"
b10000 1
b10000 t
b10000 )"
b10000 +"
b100 $
1!
#225
0!
#250
1F
b1 7
b1 w
b1 @"
b1 8
b1 ?"
b1 J
b1 r
b1 7"
b0 G
b0 y
b1 +
b1 #"
b1 6"
b1 K
b1 h
b1 2"
b1 -
b1 ="
b0 *
b0 <"
b10 .
b10 $"
b10 1"
b1 I
b1 k
b1011 0
b0 ,
b0 '"
b0 ;"
b1 )
b1 3"
b1 8"
b1 >"
b1 C"
b10 H
b10 j
b10 o
b1 5
b1 i
b1 q
b10011 4
b10011 x
b1011 /
b1011 &"
b1011 :"
b0 9
b1011000111000010011 6
b1011000111000010011 ("
b11000 2
b11000 *"
b11000 ."
b1011 f
b1011 ""
b1011 9"
b1 c
b1 A"
b1001 P
b1001 }
0T
b10 S
b10 l
b1 `
b1 n
b101011 U
b101011 p
b1011 \
b1011 !"
b1001 Z
b1001 ~
b10010 >
b10010 v
b10010 -"
b10000 b
b10000 u
b101011000010110010011 a
b11000 3
b11000 s
b11000 ,"
b10100 1
b10100 t
b10100 )"
b10100 +"
b101 $
1!
#275
0!
#300
b0 7
b0 w
b0 @"
b0 8
b0 ?"
b0 J
b0 r
b0 7"
b0 +
b0 #"
b0 6"
b11100 0
b10 I
b10 k
b0 .
b0 $"
b0 1"
b0 H
b0 j
b0 o
b11111111111101011000111010010011 6
b11111111111101011000111010010011 ("
b11100 2
b11100 *"
b11100 ."
b10100 >
b10100 v
b10100 -"
b10100 b
b10100 u
b1011000111000010011 a
1T
b0 S
b0 l
b0 `
b0 n
b1 U
b1 p
b1 [
b1 0"
b0 \
b0 !"
b1011 Z
b1011 ~
b1011 Y
b1011 %"
b1 R
b1 {
b1001 f
b1001 ""
b1001 9"
b11100 3
b11100 s
b11100 ,"
b11000 1
b11000 t
b11000 )"
b11000 +"
b110 $
1!
#325
0!
#350
b11111111111111111111111111111111 7
b11111111111111111111111111111111 w
b11111111111111111111111111111111 @"
b111111111111 8
b111111111111 ?"
b10 K
b10 h
b10 2"
b10 .
b10 $"
b10 1"
b10 I
b10 k
b11101 0
b0 5
b0 i
b0 q
b1111111 9
b11111111111001011000111100010011 6
b11111111111001011000111100010011 ("
b100000 2
b100000 *"
b100000 ."
b1011 P
b1011 }
b0 R
b0 {
b10 L
b10 z
b10 /"
b10 4"
b0 U
b0 p
b11100 Y
b11100 %"
b10110 >
b10110 v
b10110 -"
b11000 b
b11000 u
b11111111111101011000111010010011 a
b100000 3
b100000 s
b100000 ,"
b11100 1
b11100 t
b11100 )"
b11100 +"
b111 $
1!
#375
0!
#400
b11111111111111111111111111111110 7
b11111111111111111111111111111110 w
b11111111111111111111111111111110 @"
b111111111110 8
b111111111110 ?"
b11110 0
b1 I
b1 k
b1 .
b1 $"
b1 1"
b10 -
b10 ="
b11111111111111111111111111111111 5
b11111111111111111111111111111111 i
b11111111111111111111111111111111 q
b10 )
b10 3"
b10 8"
b10 >"
b10 C"
b101101010000010001100011 6
b101101010000010001100011 ("
b100100 2
b100100 *"
b100100 ."
b11000 >
b11000 v
b11000 -"
b11100 b
b11100 u
b11111111111001011000111100010011 a
b1111111 `
b1111111 n
b11111111111111111111111111111111 U
b11111111111111111111111111111111 p
b11101 Y
b11101 %"
b11100 P
b11100 }
b1011 f
b1011 ""
b1011 9"
b10 c
b10 A"
b100100 3
b100100 s
b100100 ,"
b100000 1
b100000 t
b100000 )"
b100000 +"
b1000 $
1!
#425
0!
#450
0<
0F
b1 G
b1 y
b10 *
b10 <"
b100 7
b100 w
b100 @"
b100 8
b100 ?"
1E
b0 .
b0 $"
b0 1"
b1011 ,
b1011 '"
b1011 ;"
b110 -
b110 ="
b0 I
b0 k
b0 0
b11111111111111111111111111111110 5
b11111111111111111111111111111110 i
b11111111111111111111111111111110 q
b1100011 4
b1100011 x
b1010 /
b1010 &"
b1010 :"
b0 9
b11111110000000000000010011100011 6
b11111110000000000000010011100011 ("
b101000 2
b101000 *"
b101000 ."
b11100 f
b11100 ""
b11100 9"
b11101 P
b11101 }
b1 L
b1 z
b1 /"
b1 4"
b11111111111111111111111111111110 U
b11111111111111111111111111111110 p
b10 [
b10 0"
b11110 Y
b11110 %"
b101000 >
b101000 v
b101000 -"
b100000 b
b100000 u
b101101010000010001100011 a
b101000 3
b101000 s
b101000 ,"
b100100 1
b100100 t
b100100 )"
b100100 +"
b1001 $
1!
#475
0!
#500
1D
b11111111111111111111111111110100 7
b11111111111111111111111111110100 w
b11111111111111111111111111110100 @"
b111111110100 8
b111111110100 ?"
b0 *
b0 <"
b0 -
b0 ="
b0 ,
b0 '"
b0 ;"
b100 I
b100 k
b0 /
b0 &"
b0 :"
b1111111 9
b1 H
b1 j
b1 o
b10 5
b10 i
b10 q
b10 J
b10 r
b10 7"
b110 K
b110 h
b110 2"
b1 )
b1 3"
b1 8"
b1 >"
b1 C"
b100100000010001000100011 6
b100100000010001000100011 ("
b1100 2
b1100 *"
b1100 ."
b1100 >
b1100 v
b1100 -"
b100100 b
b100100 u
b11111110000000000000010011100011 a
0^
0T
b1 S
b1 l
b0 `
b0 n
b100 U
b100 p
b10 ]
b10 5"
b110 [
b110 0"
b1011 \
b1011 !"
b1010 Z
b1010 ~
b0 Y
b0 %"
b11110 P
b11110 }
b0 L
b0 z
b0 /"
b0 4"
b11101 f
b11101 ""
b11101 9"
b1 c
b1 A"
b101100 3
b101100 s
b101100 ,"
b101000 1
b101000 t
b101000 )"
b101000 +"
b1010 $
1!
#525
0!
#550
0D
1F
b0 G
b0 y
0E
b0 7
b0 w
b0 @"
b0 8
b0 ?"
b0 .
b0 $"
b0 1"
b0 +
b0 #"
b0 6"
b0 5
b0 i
b0 q
b0 I
b0 k
b0 )
b0 3"
b0 8"
b0 >"
b0 C"
b0 J
b0 r
b0 7"
b0 K
b0 h
b0 2"
b10000 2
b10000 *"
b10000 ."
b0 4
b0 x
b0 9
b10101101001000010010110011 6
b10101101001000010010110011 ("
b11110 f
b11110 ""
b11110 9"
b0 c
b0 A"
0Q
b0 P
b0 }
b10 R
b10 {
b100 L
b100 z
b100 /"
b100 4"
b1111111 `
b1111111 n
b11111111111111111111111111110100 U
b11111111111111111111111111110100 p
b0 ]
b0 5"
b0 [
b0 0"
b0 \
b0 !"
b0 Z
b0 ~
b0 >
b0 v
b0 -"
b0 b
b0 u
b0 a
b10000 3
b10000 s
b10000 ,"
b1100 1
b1100 t
b1100 )"
b1100 +"
b1011 $
b1 %
1!
#575
0!
#600
1<
0F
b101011 7
b101011 w
b101011 @"
b101011 8
b101011 ?"
b0 I
b0 k
b10 G
b10 y
b0 K
b0 h
b0 2"
b0 J
b0 r
b0 7"
b10 *
b10 <"
b0 .
b0 $"
b0 1"
b0 +
b0 #"
b0 6"
b1001 0
b1 -
b1 ="
b1011 ,
b1011 '"
b1011 ;"
b110011 4
b110011 x
b1001 /
b1001 &"
b1001 :"
b1 9
b0 H
b0 j
b0 o
b100 )
b100 3"
b100 8"
b100 >"
b100 C"
b101011000010110010011 6
b101011000010110010011 ("
b10100 2
b10100 *"
b10100 ."
b1100010 >
b1100010 v
b1100010 -"
b1100 b
b1100 u
b10101101001000010010110011 a
1T
b0 S
b0 l
b0 `
b0 n
b0 U
b0 p
b0 R
b0 {
b0 L
b0 z
b0 /"
b0 4"
0g
b0 f
b0 ""
b0 9"
b100 c
b100 A"
b10100 3
b10100 s
b10100 ,"
b10000 1
b10000 t
b10000 )"
b10000 +"
b1100 $
1!
#625
0!
#650
1F
b1 7
b1 w
b1 @"
b1 8
b1 ?"
b0 G
b0 y
b0 *
b0 <"
b10 I
b10 k
b1011 0
b10 -
b10 ="
b0 ,
b0 '"
b0 ;"
b0 )
b0 3"
b0 8"
b0 >"
b0 C"
b10 H
b10 j
b10 o
b10 5
b10 i
b10 q
b10 J
b10 r
b10 7"
b1 K
b1 h
b1 2"
b10011 4
b10011 x
b1011 /
b1011 &"
b1011 :"
b0 9
b1011000111000010011 6
b1011000111000010011 ("
b11000 2
b11000 *"
b11000 ."
b0 c
b0 A"
1^
0T
b10 S
b10 l
b1 `
b1 n
b101011 U
b101011 p
b10 ]
b10 5"
b1 [
b1 0"
b1011 \
b1011 !"
b1001 Z
b1001 ~
b1001 Y
b1001 %"
b10010 >
b10010 v
b10010 -"
b10000 b
b10000 u
b101011000010110010011 a
b11000 3
b11000 s
b11000 ,"
b10100 1
b10100 t
b10100 )"
b10100 +"
b1101 $
1!
#675
0!
#700
b0 7
b0 w
b0 @"
b0 8
b0 ?"
b11100 0
b11 I
b11 k
b1 5
b1 i
b1 q
b0 H
b0 j
b0 o
b0 J
b0 r
b0 7"
b10 K
b10 h
b10 2"
b11111111111101011000111010010011 6
b11111111111101011000111010010011 ("
b11100 2
b11100 *"
b11100 ."
b10100 >
b10100 v
b10100 -"
b10100 b
b10100 u
b1011000111000010011 a
1T
b0 S
b0 l
b0 `
b0 n
b1 U
b1 p
b0 ]
b0 5"
b10 [
b10 0"
b0 \
b0 !"
b1011 Z
b1011 ~
b1011 Y
b1011 %"
1Q
b1001 P
b1001 }
b10 R
b10 {
b10 L
b10 z
b10 /"
b10 4"
b11100 3
b11100 s
b11100 ,"
b11000 1
b11000 t
b11000 )"
b11000 +"
b1110 $
1!
#725
0!
#750
b11111111111111111111111111111111 7
b11111111111111111111111111111111 w
b11111111111111111111111111111111 @"
b111111111111 8
b111111111111 ?"
b11 K
b11 h
b11 2"
b10 .
b10 $"
b10 1"
b11 I
b11 k
b11101 0
b10 )
b10 3"
b10 8"
b10 >"
b10 C"
b0 5
b0 i
b0 q
b1111111 9
b11111111111001011000111100010011 6
b11111111111001011000111100010011 ("
b100000 2
b100000 *"
b100000 ."
1g
b1001 f
b1001 ""
b1001 9"
b10 c
b10 A"
b1011 P
b1011 }
b0 R
b0 {
b11 L
b11 z
b11 /"
b11 4"
b0 U
b0 p
b11100 Y
b11100 %"
b10110 >
b10110 v
b10110 -"
b11000 b
b11000 u
b11111111111101011000111010010011 a
b100000 3
b100000 s
b100000 ,"
b11100 1
b11100 t
b11100 )"
b11100 +"
b1111 $
1!
#775
0!
#800
b11111111111111111111111111111110 7
b11111111111111111111111111111110 w
b11111111111111111111111111111110 @"
b111111111110 8
b111111111110 ?"
b11110 0
b10 I
b10 k
b1 .
b1 $"
b1 1"
b11 -
b11 ="
b11111111111111111111111111111111 5
b11111111111111111111111111111111 i
b11111111111111111111111111111111 q
b11 )
b11 3"
b11 8"
b11 >"
b11 C"
b101101010000010001100011 6
b101101010000010001100011 ("
b100100 2
b100100 *"
b100100 ."
b11000 >
b11000 v
b11000 -"
b11100 b
b11100 u
b11111111111001011000111100010011 a
b1111111 `
b1111111 n
b11111111111111111111111111111111 U
b11111111111111111111111111111111 p
b11101 Y
b11101 %"
b11100 P
b11100 }
b1011 f
b1011 ""
b1011 9"
b11 c
b11 A"
b100100 3
b100100 s
b100100 ,"
b100000 1
b100000 t
b100000 )"
b100000 +"
b10000 $
1!
#825
0!
#850
0<
0F
b1 G
b1 y
b11 *
b11 <"
b100 7
b100 w
b100 @"
b100 8
b100 ?"
1E
b0 .
b0 $"
b0 1"
b1011 ,
b1011 '"
b1011 ;"
b110 -
b110 ="
b1 I
b1 k
b0 0
b11111111111111111111111111111110 5
b11111111111111111111111111111110 i
b11111111111111111111111111111110 q
b1100011 4
b1100011 x
b1010 /
b1010 &"
b1010 :"
b0 9
b11111110000000000000010011100011 6
b11111110000000000000010011100011 ("
b101000 2
b101000 *"
b101000 ."
b11100 f
b11100 ""
b11100 9"
b11101 P
b11101 }
b10 L
b10 z
b10 /"
b10 4"
b11111111111111111111111111111110 U
b11111111111111111111111111111110 p
b11 [
b11 0"
b11110 Y
b11110 %"
b101000 >
b101000 v
b101000 -"
b100000 b
b100000 u
b101101010000010001100011 a
b101000 3
b101000 s
b101000 ,"
b100100 1
b100100 t
b100100 )"
b100100 +"
b10001 $
1!
#875
0!
#900
1D
b11111111111111111111111111110100 7
b11111111111111111111111111110100 w
b11111111111111111111111111110100 @"
b111111110100 8
b111111110100 ?"
b0 *
b0 <"
b0 -
b0 ="
b0 ,
b0 '"
b0 ;"
b11 I
b11 k
b0 /
b0 &"
b0 :"
b1111111 9
b1 H
b1 j
b1 o
b11 5
b11 i
b11 q
b11 J
b11 r
b11 7"
b110 K
b110 h
b110 2"
b10 )
b10 3"
b10 8"
b10 >"
b10 C"
b100100000010001000100011 6
b100100000010001000100011 ("
b1100 2
b1100 *"
b1100 ."
b1100 >
b1100 v
b1100 -"
b100100 b
b100100 u
b11111110000000000000010011100011 a
0^
0T
b1 S
b1 l
b0 `
b0 n
b100 U
b100 p
b11 ]
b11 5"
b110 [
b110 0"
b1011 \
b1011 !"
b1010 Z
b1010 ~
b0 Y
b0 %"
b11110 P
b11110 }
b1 L
b1 z
b1 /"
b1 4"
b11101 f
b11101 ""
b11101 9"
b10 c
b10 A"
b101100 3
b101100 s
b101100 ,"
b101000 1
b101000 t
b101000 )"
b101000 +"
b10010 $
1!
#925
0!
#950
0D
1F
b0 G
b0 y
0E
b0 7
b0 w
b0 @"
b0 8
b0 ?"
b0 .
b0 $"
b0 1"
b0 +
b0 #"
b0 6"
b0 5
b0 i
b0 q
b0 I
b0 k
b1 )
b1 3"
b1 8"
b1 >"
b1 C"
b0 J
b0 r
b0 7"
b0 K
b0 h
b0 2"
b10000 2
b10000 *"
b10000 ."
b0 4
b0 x
b0 9
b10101101001000010010110011 6
b10101101001000010010110011 ("
b11110 f
b11110 ""
b11110 9"
b1 c
b1 A"
0Q
b0 P
b0 }
b11 R
b11 {
b11 L
b11 z
b11 /"
b11 4"
b1111111 `
b1111111 n
b11111111111111111111111111110100 U
b11111111111111111111111111110100 p
b0 ]
b0 5"
b0 [
b0 0"
b0 \
b0 !"
b0 Z
b0 ~
b0 >
b0 v
b0 -"
b0 b
b0 u
b0 a
b10000 3
b10000 s
b10000 ,"
b1100 1
b1100 t
b1100 )"
b1100 +"
b10011 $
b10 %
1!
#975
0!
#1000
1<
0F
b101011 7
b101011 w
b101011 @"
b101011 8
b101011 ?"
b0 I
b0 k
b10 G
b10 y
b0 K
b0 h
b0 2"
b0 J
b0 r
b0 7"
b11 *
b11 <"
b0 .
b0 $"
b0 1"
b0 +
b0 #"
b0 6"
b1001 0
b10 -
b10 ="
b1011 ,
b1011 '"
b1011 ;"
b110011 4
b110011 x
b1001 /
b1001 &"
b1001 :"
b1 9
b0 H
b0 j
b0 o
b11 )
b11 3"
b11 8"
b11 >"
b11 C"
b101011000010110010011 6
b101011000010110010011 ("
b10100 2
b10100 *"
b10100 ."
b1100010 >
b1100010 v
b1100010 -"
b1100 b
b1100 u
b10101101001000010010110011 a
1T
b0 S
b0 l
b0 `
b0 n
b0 U
b0 p
b0 R
b0 {
b0 L
b0 z
b0 /"
b0 4"
0g
b0 f
b0 ""
b0 9"
b11 c
b11 A"
b10100 3
b10100 s
b10100 ,"
b10000 1
b10000 t
b10000 )"
b10000 +"
b10100 $
1!
#1025
0!
#1050
1F
b1 7
b1 w
b1 @"
b1 8
b1 ?"
b0 G
b0 y
b0 *
b0 <"
b110 I
b110 k
b1011 0
b11 -
b11 ="
b0 ,
b0 '"
b0 ;"
b0 )
b0 3"
b0 8"
b0 >"
b0 C"
b10 H
b10 j
b10 o
b11 5
b11 i
b11 q
b11 J
b11 r
b11 7"
b10 K
b10 h
b10 2"
b10011 4
b10011 x
b1011 /
b1011 &"
b1011 :"
b0 9
b1011000111000010011 6
b1011000111000010011 ("
b11000 2
b11000 *"
b11000 ."
b0 c
b0 A"
1^
0T
b10 S
b10 l
b1 `
b1 n
b101011 U
b101011 p
b11 ]
b11 5"
b10 [
b10 0"
b1011 \
b1011 !"
b1001 Z
b1001 ~
b1001 Y
b1001 %"
b10010 >
b10010 v
b10010 -"
b10000 b
b10000 u
b101011000010110010011 a
b11000 3
b11000 s
b11000 ,"
b10100 1
b10100 t
b10100 )"
b10100 +"
b10101 $
1!
#1075
0!
#1100
b0 7
b0 w
b0 @"
b0 8
b0 ?"
b11100 0
b100 I
b100 k
b1 5
b1 i
b1 q
b0 H
b0 j
b0 o
b0 J
b0 r
b0 7"
b11 K
b11 h
b11 2"
b11111111111101011000111010010011 6
b11111111111101011000111010010011 ("
b11100 2
b11100 *"
b11100 ."
b10100 >
b10100 v
b10100 -"
b10100 b
b10100 u
b1011000111000010011 a
1T
b0 S
b0 l
b0 `
b0 n
b1 U
b1 p
b0 ]
b0 5"
b11 [
b11 0"
b0 \
b0 !"
b1011 Z
b1011 ~
b1011 Y
b1011 %"
1Q
b1001 P
b1001 }
b11 R
b11 {
b110 L
b110 z
b110 /"
b110 4"
b11100 3
b11100 s
b11100 ,"
b11000 1
b11000 t
b11000 )"
b11000 +"
b10110 $
1!
#1125
0!
#1150
b11111111111111111111111111111111 7
b11111111111111111111111111111111 w
b11111111111111111111111111111111 @"
b111111111111 8
b111111111111 ?"
b100 K
b100 h
b100 2"
b10 .
b10 $"
b10 1"
b100 I
b100 k
b11101 0
b110 )
b110 3"
b110 8"
b110 >"
b110 C"
b0 5
b0 i
b0 q
b1111111 9
b11111111111001011000111100010011 6
b11111111111001011000111100010011 ("
b100000 2
b100000 *"
b100000 ."
1g
b1001 f
b1001 ""
b1001 9"
b110 c
b110 A"
b1011 P
b1011 }
b0 R
b0 {
b100 L
b100 z
b100 /"
b100 4"
b0 U
b0 p
b11100 Y
b11100 %"
b10110 >
b10110 v
b10110 -"
b11000 b
b11000 u
b11111111111101011000111010010011 a
b100000 3
b100000 s
b100000 ,"
b11100 1
b11100 t
b11100 )"
b11100 +"
b10111 $
1!
#1175
0!
#1200
b11111111111111111111111111111110 7
b11111111111111111111111111111110 w
b11111111111111111111111111111110 @"
b111111111110 8
b111111111110 ?"
b11110 0
b11 I
b11 k
b1 .
b1 $"
b1 1"
b100 -
b100 ="
b11111111111111111111111111111111 5
b11111111111111111111111111111111 i
b11111111111111111111111111111111 q
b100 )
b100 3"
b100 8"
b100 >"
b100 C"
b101101010000010001100011 6
b101101010000010001100011 ("
b100100 2
b100100 *"
b100100 ."
b11000 >
b11000 v
b11000 -"
b11100 b
b11100 u
b11111111111001011000111100010011 a
b1111111 `
b1111111 n
b11111111111111111111111111111111 U
b11111111111111111111111111111111 p
b11101 Y
b11101 %"
b11100 P
b11100 }
b1011 f
b1011 ""
b1011 9"
b100 c
b100 A"
b100100 3
b100100 s
b100100 ,"
b100000 1
b100000 t
b100000 )"
b100000 +"
b11000 $
1!
#1225
0!
