CPU.vcd
$date
	Sat Dec  5 23:53:16 2020
$end
$version
	Icarus Verilog
$end
$timescale
	1s
$end
$scope module TestBench $end
$var reg 1 ! Clk $end
$var reg 1 " Reset $end
$var reg 1 # Start $end
$var integer 32 $ counter [31:0] $end
$var integer 32 % flush [31:0] $end
$var integer 32 & i [31:0] $end
$var integer 32 ' outfile [31:0] $end
$var integer 32 ( stall [31:0] $end
$scope module CPU $end
$var wire 1 ! clk_i $end
$var wire 1 " rst_i $end
$var wire 1 # start_i $end
$var wire 32 ) wb_data [31:0] $end
$var wire 32 * rs2_data [31:0] $end
$var wire 2 + rs2_ctrl [1:0] $end
$var wire 5 , rs2_addr [4:0] $end
$var wire 32 - rs1_data [31:0] $end
$var wire 2 . rs1_ctrl [1:0] $end
$var wire 5 / rs1_addr [4:0] $end
$var wire 5 0 rd_addr [4:0] $end
$var wire 32 1 pc_o [31:0] $end
$var wire 32 2 pc_i [31:0] $end
$var wire 32 3 pc_add4 [31:0] $end
$var wire 7 4 opcode [6:0] $end
$var wire 32 5 mux_o [31:0] $end
$var wire 32 6 instr [31:0] $end
$var wire 32 7 imm_o [31:0] $end
$var wire 12 8 imm_i [11:0] $end
$var wire 7 9 func7 [6:0] $end
$var wire 3 : func3 [2:0] $end
$var wire 1 ; Stall $end
$var wire 1 < RegWrite $end
$var wire 1 = PcWrite $end
$var wire 1 > NoOp $end
$var wire 1 ? MemtoReg $end
$var wire 1 @ MemWrite $end
$var wire 1 A MemRead $end
$var wire 32 B MemData_o [31:0] $end
$var wire 1 C Branch $end
$var wire 1 D AluSrc $end
$var wire 2 E AluOp [1:0] $end
$var wire 3 F AluControl_o [2:0] $end
$var wire 32 G ALU_o [31:0] $end
$var wire 32 H ALU_RS2 [31:0] $end
$var wire 32 I ALU_RS1 [31:0] $end
$var reg 32 J EX_MEM_ALUout [31:0] $end
$var reg 1 K EX_MEM_Branch $end
$var reg 1 L EX_MEM_MemRead $end
$var reg 1 M EX_MEM_MemWrite $end
$var reg 1 N EX_MEM_MemtoReg $end
$var reg 5 O EX_MEM_RD [4:0] $end
$var reg 1 P EX_MEM_RegWrite $end
$var reg 32 Q EX_MEM_WriteData [31:0] $end
$var reg 2 R ID_EX_AluOp [1:0] $end
$var reg 1 S ID_EX_AluSrc $end
$var reg 1 T ID_EX_Branch $end
$var reg 32 U ID_EX_IMM [31:0] $end
$var reg 1 V ID_EX_MemRead $end
$var reg 1 W ID_EX_MemWrite $end
$var reg 1 X ID_EX_MemtoReg $end
$var reg 32 Y ID_EX_PC [31:0] $end
$var reg 5 Z ID_EX_RD [4:0] $end
$var reg 5 [ ID_EX_RS1 [4:0] $end
$var reg 32 \ ID_EX_RS1data [31:0] $end
$var reg 5 ] ID_EX_RS2 [4:0] $end
$var reg 32 ^ ID_EX_RS2data [31:0] $end
$var reg 1 _ ID_EX_RegWrite $end
$var reg 3 ` ID_EX_func3 [2:0] $end
$var reg 7 a ID_EX_func7 [6:0] $end
$var reg 32 b IF_ID_IR [31:0] $end
$var reg 32 c IF_ID_PC [31:0] $end
$var reg 32 d MEM_WB_ALUout [31:0] $end
$var reg 32 e MEM_WB_MEMout [31:0] $end
$var reg 1 f MEM_WB_MemtoReg $end
$var reg 5 g MEM_WB_RD [4:0] $end
$var reg 1 h MEM_WB_RegWrite $end
$scope module ALU $end
$var wire 32 i rs1_data [31:0] $end
$var wire 32 j mux_o [31:0] $end
$var wire 3 k AluControl [2:0] $end
$var reg 32 l ALU_o [31:0] $end
$upscope $end
$scope module ALU_Control $end
$var wire 2 m AluOp [1:0] $end
$var wire 3 n func3 [2:0] $end
$var wire 7 o func7 [6:0] $end
$var reg 3 p AluControl_o [2:0] $end
$upscope $end
$scope module ALU_Src_Mux $end
$var wire 1 S ctrl_signal $end
$var wire 32 q input1 [31:0] $end
$var wire 32 r out [31:0] $end
$var wire 32 s input0 [31:0] $end
$upscope $end
$scope module Adder $end
$var wire 32 t pc_o [31:0] $end
$var wire 32 u pc_i [31:0] $end
$upscope $end
$scope module Control $end
$var wire 7 v opcode [6:0] $end
$var wire 1 < RegWrite $end
$var wire 1 > NoOp $end
$var wire 1 ? MemtoReg $end
$var wire 1 @ MemWrite $end
$var wire 1 A MemRead $end
$var wire 1 C Branch $end
$var wire 1 D AluSrc $end
$var wire 2 w AluOp [1:0] $end
$upscope $end
$scope module Data_Memory $end
$var wire 1 L MemRead_i $end
$var wire 1 M MemWrite_i $end
$var wire 32 x addr_i [31:0] $end
$var wire 1 ! clk_i $end
$var wire 32 y data_i [31:0] $end
$var wire 32 z data_o [31:0] $end
$upscope $end
$scope module Forwarding_Unit $end
$var wire 5 { EX_MEM_RD [4:0] $end
$var wire 1 P EX_MEM_RegWrite $end
$var wire 5 | ID_EX_RS1 [4:0] $end
$var wire 5 } ID_EX_RS2 [4:0] $end
$var wire 5 ~ MEM_WB_RD [4:0] $end
$var wire 1 h MEM_WB_RegWrite $end
$var wire 2 !" Forward_Control2 [1:0] $end
$var wire 2 "" Forward_Control1 [1:0] $end
$upscope $end
$scope module Hazard_Detection $end
$var wire 1 V ID_EX_MemRead $end
$var wire 5 #" ID_EX_RD [4:0] $end
$var wire 5 $" rs1_addr [4:0] $end
$var wire 5 %" rs2_addr [4:0] $end
$var reg 1 > NoOp_o $end
$var reg 1 = PcWrite_o $end
$var reg 1 ; Stall_o $end
$upscope $end
$scope module Instruction_Memory $end
$var wire 32 &" instr_o [31:0] $end
$var wire 32 '" addr_i [31:0] $end
$upscope $end
$scope module PC $end
$var wire 1 = PCWrite_i $end
$var wire 1 ! clk_i $end
$var wire 1 " rst_i $end
$var wire 1 # start_i $end
$var wire 32 (" pc_i [31:0] $end
$var reg 32 )" pc_o [31:0] $end
$upscope $end
$scope module PC_Mux $end
$var wire 1 *" ctrl_signal $end
$var wire 32 +" input0 [31:0] $end
$var wire 32 ," input1 [31:0] $end
$var wire 32 -" out [31:0] $end
$upscope $end
$scope module RS1_Forwarding $end
$var wire 32 ." EX_MEM_ALUout [31:0] $end
$var wire 32 /" ID_EX_RS [31:0] $end
$var wire 2 0" ctrl [1:0] $end
$var wire 32 1" forword_out [31:0] $end
$var wire 32 2" WB_WBdata [31:0] $end
$upscope $end
$scope module RS2_Forwarding $end
$var wire 32 3" EX_MEM_ALUout [31:0] $end
$var wire 32 4" ID_EX_RS [31:0] $end
$var wire 2 5" ctrl [1:0] $end
$var wire 32 6" forword_out [31:0] $end
$var wire 32 7" WB_WBdata [31:0] $end
$upscope $end
$scope module Registers $end
$var wire 5 8" RDaddr_i [4:0] $end
$var wire 5 9" RS1addr_i [4:0] $end
$var wire 5 :" RS2addr_i [4:0] $end
$var wire 1 h RegWrite_i $end
$var wire 1 ! clk_i $end
$var wire 32 ;" RS2data_o [31:0] $end
$var wire 32 <" RS1data_o [31:0] $end
$var wire 32 =" RDdata_i [31:0] $end
$upscope $end
$scope module Sign_Extend $end
$var wire 12 >" imm_i [11:0] $end
$var wire 32 ?" imm_o [31:0] $end
$upscope $end
$scope module WB_Mux $end
$var wire 1 f ctrl_signal $end
$var wire 32 @" input0 [31:0] $end
$var wire 32 A" input1 [31:0] $end
$var wire 32 B" out [31:0] $end
$upscope $end
$upscope $end
$upscope $end
$enddefinitions $end
#0
$dumpvars
b0 B"
b0 A"
b0 @"
b0 ?"
b0 >"
b0 ="
b0 <"
b0 ;"
b0 :"
b0 9"
b0 8"
b0 7"
b0 6"
b0 5"
b0 4"
b0 3"
b0 2"
b0 1"
b0 0"
b0 /"
b0 ."
b100 -"
bz ,"
b100 +"
0*"
b0 )"
b100 ("
b0 '"
b101000000000001100010011 &"
b0 %"
b0 $"
b0 #"
b0 ""
b0 !"
b0 ~
b0 }
b0 |
b0 {
b0 z
b0 y
b0 x
b0 w
b100 v
b0 u
b100 t
b0 s
b0 r
b0 q
b0 p
b0 o
b0 n
b0 m
b0 l
b0 k
b0 j
b0 i
0h
b0 g
0f
b0 e
b0 d
b0 c
b100 b
b0 a
b0 `
0_
b0 ^
b0 ]
b0 \
b0 [
b0 Z
b0 Y
0X
0W
0V
b0 U
0T
0S
b0 R
b0 Q
0P
b0 O
0N
0M
0L
0K
b0 J
b0 I
b0 H
b0 G
b0 F
b0 E
1D
0C
b0 B
0A
0@
0?
0>
1=
0<
0;
b0 :
b0 9
b0 8
b0 7
b101000000000001100010011 6
b0 5
b100 4
b100 3
b100 2
b0 1
b0 0
b0 /
b0 .
b0 -
b0 ,
b0 +
b0 *
b0 )
b0 (
b11 '
b100000 &
b0 %
b0 $
0#
1"
1!
$end
#12
1#
0"
#25
0!
#50
1<
b1010 7
b1010 ?"
b1010 8
b1010 >"
b110 0
b0 ,
b0 %"
b0 :"
b10011 4
b10011 v
b11000110000001100110011 6
b11000110000001100110011 &"
b1000 2
b1000 ("
b1000 -"
1S
b101000000000001100010011 b
b1000 3
b1000 t
b1000 +"
b100 1
b100 u
b100 '"
b100 )"
b1 $
1!
#75
0!
#100
1<
0D
b110 7
b110 ?"
b110 8
b110 >"
b10 E
b10 w
b110 ,
b110 %"
b110 :"
b1010 G
b1010 l
b110011 4
b110011 v
b110 /
b110 $"
b110 9"
b1010 5
b1010 j
b1010 r
b1100 2
b1100 ("
b1100 -"
b100 c
b11000110000001100110011 b
1_
b1010 U
b1010 q
b110 Z
b110 #"
b1100 3
b1100 t
b1100 +"
b1000 1
b1000 u
b1000 '"
b1000 )"
b10 $
1!
#125
0!
#150
b1010 I
b1010 i
b1010 1"
b1010 H
b1010 s
b1010 6"
b10 .
b10 ""
b10 0"
b10 +
b10 !"
b10 5"
b10100 G
b10100 l
b1010 5
b1010 j
b1010 r
b10000 2
b10000 ("
b10000 -"
1P
b110 O
b110 {
b1010 J
b1010 x
b1010 ."
b1010 3"
0S
b10 R
b10 m
b100 Y
b110 U
b110 q
b110 ]
b110 }
b110 [
b110 |
b1000 c
b10000 3
b10000 t
b10000 +"
b1100 1
b1100 u
b1100 '"
b1100 )"
b11 $
1!
#175
0!
#200
b101000 G
b101000 l
b10100 5
b10100 j
b10100 r
b10100 I
b10100 i
b10100 1"
b10100 H
b10100 s
b10100 6"
b1010 -
b1010 <"
b1010 *
b1010 ;"
b1010 )
b1010 2"
b1010 7"
b1010 ="
b1010 B"
b10100 2
b10100 ("
b10100 -"
b1100 c
b1000 Y
b1010 Q
b1010 y
b10100 J
b10100 x
b10100 ."
b10100 3"
1h
b110 g
b110 ~
b110 8"
b1010 d
b1010 @"
b10100 3
b10100 t
b10100 +"
b10000 1
b10000 u
b10000 '"
b10000 )"
b100 $
1!
#225
0!
#250
b1010000 G
b1010000 l
b101000 5
b101000 j
b101000 r
b10100 *
b10100 ;"
b10100 -
b10100 <"
b101000 I
b101000 i
b101000 1"
b101000 H
b101000 s
b101000 6"
b10100 )
b10100 2"
b10100 7"
b10100 ="
b10100 B"
b11111111000000110000001110010011 6
b11111111000000110000001110010011 &"
b11000 2
b11000 ("
b11000 -"
b10100 d
b10100 @"
b10100 Q
b10100 y
b101000 J
b101000 x
b101000 ."
b101000 3"
b1100 Y
b1010 ^
b1010 4"
b1010 \
b1010 /"
b10000 c
b11000 3
b11000 t
b11000 +"
b10100 1
b10100 u
b10100 '"
b10100 )"
b101 $
1!
#275
0!
#300
1D
b11111111111111111111111111110000 7
b11111111111111111111111111110000 ?"
b111111110000 8
b111111110000 >"
b0 E
b0 w
b10100000 G
b10100000 l
b1010000 5
b1010000 j
b1010000 r
b111 0
b0 ,
b0 %"
b0 :"
b1010000 I
b1010000 i
b1010000 1"
b1010000 H
b1010000 s
b1010000 6"
b0 *
b0 ;"
b101000 -
b101000 <"
b10011 4
b10011 v
b1111111 9
b101000 )
b101000 2"
b101000 7"
b101000 ="
b101000 B"
b11110011100000111000110011 6
b11110011100000111000110011 &"
b11100 2
b11100 ("
b11100 -"
b10100 c
b11111111000000110000001110010011 b
b10000 Y
b10100 ^
b10100 4"
b10100 \
b10100 /"
b101000 Q
b101000 y
b1010000 J
b1010000 x
b1010000 ."
b1010000 3"
b101000 d
b101000 @"
b11100 3
b11100 t
b11100 +"
b11000 1
b11000 u
b11000 '"
b11000 )"
b110 $
1!
#325
0!
#350
1<
0D
b111100 7
b111100 ?"
b111100 8
b111100 >"
b10 E
b10 w
b11100 ,
b11100 %"
b11100 :"
b0 -
b0 <"
b10100000 I
b10100000 i
b10100000 1"
b0 H
b0 s
b0 6"
b10010000 G
b10010000 l
b0 +
b0 !"
b0 5"
b11100 0
b1010000 )
b1010000 2"
b1010000 7"
b1010000 ="
b1010000 B"
b11111111111111111111111111110000 5
b11111111111111111111111111110000 j
b11111111111111111111111111110000 r
b110011 4
b110011 v
b11100 /
b11100 $"
b11100 9"
b1 9
b11000000010001000100011 6
b11000000010001000100011 &"
b100000 2
b100000 ("
b100000 -"
b1010000 d
b1010000 @"
b1010000 Q
b1010000 y
b10100000 J
b10100000 x
b10100000 ."
b10100000 3"
1S
b0 R
b0 m
b1111111 a
b1111111 o
b10100 Y
b11111111111111111111111111110000 U
b11111111111111111111111111110000 q
b0 ^
b0 4"
b101000 \
b101000 /"
b0 ]
b0 }
b111 Z
b111 #"
b11000 c
b11110011100000111000110011 b
b100000 3
b100000 t
b100000 +"
b11100 1
b11100 u
b11100 '"
b11100 )"
b111 $
1!
#375
0!
#400
0<
1D
1@
b0 E
b0 w
b100 7
b100 ?"
b100 8
b100 >"
b10100000 *
b10100000 ;"
b0 0
b110 ,
b110 %"
b110 :"
b0 G
b0 l
b0 .
b0 ""
b0 0"
b0 I
b0 i
b0 1"
b100011 4
b100011 v
b10 :
b0 /
b0 $"
b0 9"
b0 9
b10 F
b10 k
b10 p
b0 5
b0 j
b0 r
b10100000 )
b10100000 2"
b10100000 7"
b10100000 ="
b10100000 B"
b101010111100000011 6
b101010111100000011 &"
b100100 2
b100100 ("
b100100 -"
b11100 c
b11000000010001000100011 b
0S
b10 R
b10 m
b1 a
b1 o
b11000 Y
b111100 U
b111100 q
b0 \
b0 /"
b11100 ]
b11100 }
b11100 [
b11100 |
b11100 Z
b11100 #"
b111 O
b111 {
b0 Q
b0 y
b10010000 J
b10010000 x
b10010000 ."
b10010000 3"
b10100000 d
b10100000 @"
b100100 3
b100100 t
b100100 +"
b100000 1
b100000 u
b100000 '"
b100000 )"
b1000 $
1!
#425
0!
#450
1<
1A
0@
1?
b11110 0
b0 *
b0 ;"
b100 G
b100 l
b0 7
b0 ?"
b0 8
b0 >"
b0 ,
b0 %"
b0 :"
b10010000 )
b10010000 2"
b10010000 7"
b10010000 ="
b10010000 B"
b100 5
b100 j
b100 r
b0 F
b0 k
b0 p
b10100000 H
b10100000 s
b10100000 6"
b11 4
b11 v
b101 /
b101 $"
b101 9"
b1000000000111000010011 6
b1000000000111000010011 &"
b101000 2
b101000 ("
b101000 -"
b111 g
b111 ~
b111 8"
b10010000 d
b10010000 @"
b11100 O
b11100 {
b0 J
b0 x
b0 ."
b0 3"
1W
0_
1S
b0 R
b0 m
b10 `
b10 n
b0 a
b0 o
b11100 Y
b100 U
b100 q
b10100000 ^
b10100000 4"
b110 ]
b110 }
b0 [
b0 |
b0 Z
b0 #"
b100000 c
b101010111100000011 b
b101000 3
b101000 t
b101000 +"
b100100 1
b100100 u
b100100 '"
b100100 )"
b1001 $
1!
#475
0!
#500
b10 7
b10 ?"
b10 8
b10 >"
0A
0?
b11100 0
b0 G
b0 l
b10011 4
b10011 v
b0 :
b0 /
b0 $"
b0 9"
b0 5
b0 j
b0 r
b0 H
b0 s
b0 6"
b0 )
b0 2"
b0 7"
b0 ="
b0 B"
b11110011100000111000110011 6
b11110011100000111000110011 &"
b101100 2
b101100 ("
b101100 -"
b100100 c
b1000000000111000010011 b
0W
1V
1X
1_
b100000 Y
b0 U
b0 q
b0 ^
b0 4"
b0 ]
b0 }
b101 [
b101 |
b11110 Z
b11110 #"
1M
0P
b0 O
b0 {
b10100000 Q
b10100000 y
b100 J
b100 x
b100 ."
b100 3"
b11100 g
b11100 ~
b11100 8"
b0 d
b0 @"
b101100 3
b101100 t
b101100 +"
b101000 1
b101000 u
b101000 '"
b101000 )"
b1010 $
1!
#525
0!
#550
1<
0D
b111100 7
b111100 ?"
b111100 8
b111100 >"
b0 I
b0 i
b0 1"
b0 H
b0 s
b0 6"
b10 E
b10 w
b0 .
b0 ""
b0 0"
b0 +
b0 !"
b0 5"
b11100 ,
b11100 %"
b11100 :"
b10 G
b10 l
b100 )
b100 2"
b100 7"
b100 ="
b100 B"
b101 B
b101 z
b10 5
b10 j
b10 r
b110011 4
b110011 v
b11100 /
b11100 $"
b11100 9"
b1 9
b110000 2
b110000 ("
b110000 -"
0h
b0 g
b0 ~
b0 8"
b100 d
b100 @"
0M
1L
1N
1P
b11110 O
b11110 {
b0 Q
b0 y
b0 J
b0 x
b0 ."
b0 3"
0V
0X
b0 `
b0 n
b100100 Y
b10 U
b10 q
b0 [
b0 |
b11100 Z
b11100 #"
b101000 c
b11110011100000111000110011 b
b110000 3
b110000 t
b110000 +"
b101100 1
b101100 u
b101100 '"
b101100 )"
b1011 $
1!
#575
0!
#600
b10 H
b10 s
b10 6"
b10 I
b10 i
b10 1"
b100 G
b100 l
b10 +
b10 !"
b10 5"
b10 .
b10 ""
b10 0"
b10 F
b10 k
b10 p
b10 5
b10 j
b10 r
b0 B
b0 z
b101 )
b101 2"
b101 7"
b101 ="
b101 B"
b110100 2
b110100 ("
b110100 -"
b101100 c
0S
b10 R
b10 m
b1 a
b1 o
b101000 Y
b111100 U
b111100 q
b11100 ]
b11100 }
b11100 [
b11100 |
0L
0N
b11100 O
b11100 {
b10 J
b10 x
b10 ."
b10 3"
1f
1h
b11110 g
b11110 ~
b11110 8"
b0 d
b0 @"
b101 e
b101 A"
b110100 3
b110100 t
b110100 +"
b110000 1
b110000 u
b110000 '"
b110000 )"
b1100 $
1!
#625
0!
#650
b10000 G
b10000 l
b100 5
b100 j
b100 r
b10 -
b10 <"
b10 *
b10 ;"
b100 I
b100 i
b100 1"
b100 H
b100 s
b100 6"
b10 )
b10 2"
b10 7"
b10 ="
b10 B"
b111000 2
b111000 ("
b111000 -"
0f
b11100 g
b11100 ~
b11100 8"
b10 d
b10 @"
b0 e
b0 A"
b10 Q
b10 y
b100 J
b100 x
b100 ."
b100 3"
b101100 Y
b110000 c
b111000 3
b111000 t
b111000 +"
b110100 1
b110100 u
b110100 '"
b110100 )"
b1101 $
1!
#675
0!
#700
b100000000 G
b100000000 l
b10000 5
b10000 j
b10000 r
b10000 I
b10000 i
b10000 1"
b10000 H
b10000 s
b10000 6"
b100 *
b100 ;"
b100 -
b100 <"
b100 )
b100 2"
b100 7"
b100 ="
b100 B"
b111100 2
b111100 ("
b111100 -"
b110100 c
b110000 Y
b10 ^
b10 4"
b10 \
b10 /"
b100 Q
b100 y
b10000 J
b10000 x
b10000 ."
b10000 3"
b100 d
b100 @"
b111100 3
b111100 t
b111100 +"
b111000 1
b111000 u
b111000 '"
b111000 )"
b1110 $
1!
#725
0!
#750
b10000000000000000 G
b10000000000000000 l
b100000000 5
b100000000 j
b100000000 r
b10000 *
b10000 ;"
b10000 -
b10000 <"
b100000000 I
b100000000 i
b100000000 1"
b100000000 H
b100000000 s
b100000000 6"
b10000 )
b10000 2"
b10000 7"
b10000 ="
b10000 B"
b11100000010000000100011 6
b11100000010000000100011 &"
b1000000 2
b1000000 ("
b1000000 -"
b10000 d
b10000 @"
b10000 Q
b10000 y
b100000000 J
b100000000 x
b100000000 ."
b100000000 3"
b110100 Y
b100 ^
b100 4"
b100 \
b100 /"
b111000 c
b1000000 3
b1000000 t
b1000000 +"
b111100 1
b111100 u
b111100 '"
b111100 )"
b1111 $
1!
#775
0!
#800
0<
1D
1@
b0 E
b0 w
b0 7
b0 ?"
b0 8
b0 >"
b0 G
b0 l
b10000000000000000 5
b10000000000000000 j
b10000000000000000 r
b0 0
b111 ,
b111 %"
b111 :"
b10000000000000000 I
b10000000000000000 i
b10000000000000000 1"
b10000000000000000 H
b10000000000000000 s
b10000000000000000 6"
b10010000 *
b10010000 ;"
b0 -
b0 <"
b100011 4
b100011 v
b10 :
b0 /
b0 $"
b0 9"
b0 9
b100000000 )
b100000000 2"
b100000000 7"
b100000000 ="
b100000000 B"
b11111111111111110000111100010011 6
b11111111111111110000111100010011 &"
b1000100 2
b1000100 ("
b1000100 -"
b111100 c
b11100000010000000100011 b
b111000 Y
b10000 ^
b10000 4"
b10000 \
b10000 /"
b100000000 Q
b100000000 y
b10000000000000000 J
b10000000000000000 x
b10000000000000000 ."
b10000000000000000 3"
b100000000 d
b100000000 @"
b1000100 3
b1000100 t
b1000100 +"
b1000000 1
b1000000 u
b1000000 '"
b1000000 )"
b10000 $
1!
#825
0!
#850
1<
0@
b11110 0
b0 *
b0 ;"
b11111111111111111111111111111111 7
b11111111111111111111111111111111 ?"
b111111111111 8
b111111111111 >"
b0 I
b0 i
b0 1"
b10010000 H
b10010000 s
b10010000 6"
b0 G
b0 l
b0 +
b0 !"
b0 5"
b0 .
b0 ""
b0 0"
b101 -
b101 <"
b0 ,
b0 %"
b0 :"
b10000000000000000 )
b10000000000000000 2"
b10000000000000000 7"
b10000000000000000 ="
b10000000000000000 B"
b0 5
b0 j
b0 r
b0 F
b0 k
b0 p
b10011 4
b10011 v
b0 :
b11110 /
b11110 $"
b11110 9"
b1111111 9
b1001000 2
b1001000 ("
b1001000 -"
b10000000000000000 d
b10000000000000000 @"
b10000000000000000 Q
b10000000000000000 y
b0 J
b0 x
b0 ."
b0 3"
1W
0_
1S
b0 R
b0 m
b10 `
b10 n
b0 a
b0 o
b111100 Y
b0 U
b0 q
b10010000 ^
b10010000 4"
b0 \
b0 /"
b111 ]
b111 }
b0 [
b0 |
b0 Z
b0 #"
b1000000 c
b11111111111111110000111100010011 b
b1001000 3
b1001000 t
b1001000 +"
b1000100 1
b1000100 u
b1000100 '"
b1000100 )"
b10001 $
1!
#875
0!
#900
b100 G
b100 l
b11111111111111111111111111111111 5
b11111111111111111111111111111111 j
b11111111111111111111111111111111 r
b0 H
b0 s
b0 6"
b101 I
b101 i
b101 1"
b0 )
b0 2"
b0 7"
b0 ="
b0 B"
b1001100 2
b1001100 ("
b1001100 -"
b1000100 c
0W
1_
b0 `
b0 n
b1111111 a
b1111111 o
b1000000 Y
b11111111111111111111111111111111 U
b11111111111111111111111111111111 q
b0 ^
b0 4"
b101 \
b101 /"
b0 ]
b0 }
b11110 [
b11110 |
b11110 Z
b11110 #"
1M
0P
b0 O
b0 {
b10010000 Q
b10010000 y
b0 d
b0 @"
b1001100 3
b1001100 t
b1001100 +"
b1001000 1
b1001000 u
b1001000 '"
b1001000 )"
b10010 $
1!
#925
0!
#950
b11 G
b11 l
b100 I
b100 i
b100 1"
b0 +
b0 !"
b0 5"
b10 .
b10 ""
b10 0"
b1010000 2
b1010000 ("
b1010000 -"
0h
b0 g
b0 ~
b0 8"
0M
1P
b11110 O
b11110 {
b0 Q
b0 y
b100 J
b100 x
b100 ."
b100 3"
b1000100 Y
b1001000 c
b1010000 3
b1010000 t
b1010000 +"
b1001100 1
b1001100 u
b1001100 '"
b1001100 )"
b10011 $
1!
#975
0!
#1000
b10 G
b10 l
b11 I
b11 i
b11 1"
b100 -
b100 <"
b100 )
b100 2"
b100 7"
b100 ="
b100 B"
b1010100 2
b1010100 ("
b1010100 -"
b1001100 c
b1001000 Y
b11 J
b11 x
b11 ."
b11 3"
1h
b11110 g
b11110 ~
b11110 8"
b100 d
b100 @"
b1010100 3
b1010100 t
b1010100 +"
b1010000 1
b1010000 u
b1010000 '"
b1010000 )"
b10100 $
1!
#1025
0!
#1050
b1 G
b1 l
b11 -
b11 <"
b10 I
b10 i
b10 1"
b11 )
b11 2"
b11 7"
b11 ="
b11 B"
b11000110111111010110011 6
b11000110111111010110011 &"
b1011000 2
b1011000 ("
b1011000 -"
b11 d
b11 @"
b10 J
b10 x
b10 ."
b10 3"
b1001100 Y
b100 \
b100 /"
b1010000 c
b1011000 3
b1011000 t
b1011000 +"
b1010100 1
b1010100 u
b1010100 '"
b1010100 )"
b10101 $
1!
#1075
0!
#1100
1<
0D
b110 7
b110 ?"
b110 8
b110 >"
b10100000 *
b10100000 ;"
b10 E
b10 w
b110 ,
b110 %"
b110 :"
b0 G
b0 l
b11101 0
b1 I
b1 i
b1 1"
b10100000 -
b10100000 <"
b110011 4
b110011 v
b111 :
b110 /
b110 $"
b110 9"
b0 9
b10 )
b10 2"
b10 7"
b10 ="
b10 B"
b111111110000111100010011 6
b111111110000111100010011 &"
b1011100 2
b1011100 ("
b1011100 -"
b1010100 c
b11000110111111010110011 b
b1010000 Y
b11 \
b11 /"
b1 J
b1 x
b1 ."
b1 3"
b10 d
b10 @"
b1011100 3
b1011100 t
b1011100 +"
b1011000 1
b1011000 u
b1011000 '"
b1011000 )"
b10110 $
1!
#1125
0!
#1150
1D
b1111 7
b1111 ?"
b1111 8
b1111 >"
b0 E
b0 w
b10100000 G
b10100000 l
b0 *
b0 ;"
b10100000 I
b10100000 i
b10100000 1"
b0 .
b0 ""
b0 0"
b11110 0
b1 -
b1 <"
b0 ,
b0 %"
b0 :"
b1 )
b1 2"
b1 7"
b1 ="
b1 B"
b11 F
b11 k
b11 p
b10100000 5
b10100000 j
b10100000 r
b10100000 H
b10100000 s
b10100000 6"
b10011 4
b10011 v
b0 :
b11110 /
b11110 $"
b11110 9"
b1111000000010011000100011 6
b1111000000010011000100011 &"
b1100000 2
b1100000 ("
b1100000 -"
b1 d
b1 @"
b0 J
b0 x
b0 ."
b0 3"
0S
b10 R
b10 m
b111 `
b111 n
b0 a
b0 o
b1010100 Y
b110 U
b110 q
b10100000 ^
b10100000 4"
b10100000 \
b10100000 /"
b110 ]
b110 }
b110 [
b110 |
b11101 Z
b11101 #"
b1011000 c
b111111110000111100010011 b
b1100000 3
b1100000 t
b1100000 +"
b1011100 1
b1011100 u
b1011100 '"
b1011100 )"
b10111 $
1!
#1175
0!
#1200
0<
b0 *
b0 ;"
1@
b11110 ,
b11110 %"
b11110 :"
b1100 7
b1100 ?"
b1100 8
b1100 >"
b1 .
b1 ""
b1 0"
b0 0
b1111 G
b1111 l
b0 -
b0 <"
b100011 4
b100011 v
b10 :
b0 /
b0 $"
b0 9"
b1111 5
b1111 j
b1111 r
b0 F
b0 k
b0 p
b0 H
b0 s
b0 6"
b0 I
b0 i
b0 1"
b0 )
b0 2"
b0 7"
b0 ="
b0 B"
b0 6
b0 &"
b1100100 2
b1100100 ("
b1100100 -"
b1011100 c
b1111000000010011000100011 b
1S
b0 R
b0 m
b0 `
b0 n
b1011000 Y
b1111 U
b1111 q
b0 ^
b0 4"
b1 \
b1 /"
b0 ]
b0 }
b11110 [
b11110 |
b11110 Z
b11110 #"
b11101 O
b11101 {
b10100000 Q
b10100000 y
b10100000 J
b10100000 x
b10100000 ."
b10100000 3"
b0 d
b0 @"
b1100100 3
b1100100 t
b1100100 +"
b1100000 1
b1100000 u
b1100000 '"
b1100000 )"
b11000 $
1!
#1225
0!
#1250
b1111 H
b1111 s
b1111 6"
b0 .
b0 ""
b0 0"
b10 +
b10 !"
b10 5"
b1100 G
b1100 l
b10100000 )
b10100000 2"
b10100000 7"
b10100000 ="
b10100000 B"
b1100 5
b1100 j
b1100 r
b1101000 2
b1101000 ("
b1101000 -"
b11101 g
b11101 ~
b11101 8"
b10100000 d
b10100000 @"
b11110 O
b11110 {
b0 Q
b0 y
b1111 J
b1111 x
b1111 ."
b1111 3"
1W
0_
b10 `
b10 n
b1011100 Y
b1100 U
b1100 q
b0 \
b0 /"
b11110 ]
b11110 }
b0 [
b0 |
b0 Z
b0 #"
b1101000 3
b1101000 t
b1101000 +"
b1100100 1
b1100100 u
b1100100 '"
b1100100 )"
b11001 $
1!
#1275
0!
#1300
b1100 G
b1100 l
b0 I
b0 i
b0 1"
b0 .
b0 ""
b0 0"
b1 +
b1 !"
b1 5"
b1111 H
b1111 s
b1111 6"
b1111 *
b1111 ;"
b1111 )
b1111 2"
b1111 7"
b1111 ="
b1111 B"
b1101100 2
b1101100 ("
b1101100 -"
1M
0P
b0 O
b0 {
b1111 Q
b1111 y
b1100 J
b1100 x
b1100 ."
b1100 3"
b11110 g
b11110 ~
b11110 8"
b1111 d
b1111 @"
b1101100 3
b1101100 t
b1101100 +"
b1101000 1
b1101000 u
b1101000 '"
b1101000 )"
b11010 $
1!
#1325
0!
#1350
b1100 G
b1100 l
b0 I
b0 i
b0 1"
b0 .
b0 ""
b0 0"
b0 +
b0 !"
b0 5"
b1111 H
b1111 s
b1111 6"
b1100 )
b1100 2"
b1100 7"
b1100 ="
b1100 B"
b1110000 2
b1110000 ("
b1110000 -"
0h
b0 g
b0 ~
b0 8"
b1100 d
b1100 @"
b1111 ^
b1111 4"
b1110000 3
b1110000 t
b1110000 +"
b1101100 1
b1101100 u
b1101100 '"
b1101100 )"
b11011 $
1!
#1375
0!
#1400
b1110100 2
b1110100 ("
b1110100 -"
b1110100 3
b1110100 t
b1110100 +"
b1110000 1
b1110000 u
b1110000 '"
b1110000 )"
b11100 $
1!
#1425
0!
#1450
b1111000 2
b1111000 ("
b1111000 -"
b1111000 3
b1111000 t
b1111000 +"
b1110100 1
b1110100 u
b1110100 '"
b1110100 )"
b11101 $
1!
#1475
0!
#1500
b1111100 2
b1111100 ("
b1111100 -"
b1111100 3
b1111100 t
b1111100 +"
b1111000 1
b1111000 u
b1111000 '"
b1111000 )"
b11110 $
1!
#1525
0!
#1550
b10000000 2
b10000000 ("
b10000000 -"
b10000000 3
b10000000 t
b10000000 +"
b1111100 1
b1111100 u
b1111100 '"
b1111100 )"
b11111 $
1!
#1575
0!
